{
	"name": "Local Documentation",
	"image": "python:3.8-buster",

	"customizations": {
		"vscode": {
			"settings": {},
			"extensions": [
				"streetsidesoftware.code-spell-checker"
			]
		}
	},

	"portsAttributes": {
		"9000": {
			"label": "Hello Remote World",
			"onAutoForward": "notify"
		}
	},

	"postCreateCommand": "pip install -r requirements.txt"
}